{
  "pagination": {
    "total": 100,
    "per_page": 10,
    "current_page": 1,
    "last_page": 10
  },
  "data": [
    {
      "id": 1,
      "name": "Iphone 13 Pro Max",
      "price": 20000000,
      "stock": 10,
      "category": {
        "id": 1,
        "name": "Mobile Phone"
      } 
    },
    {
      "id": 2,
      "name": "Macbook Pro M1 2020",
      "price": 27000000,
      "stock": 10,
      "category": {
        "id": 2,
        "name": "Laptop"
      }
    }
  ]
}